<svg width="45" height="45" viewBox="0 0 45 45" fill="none" xmlns="http://www.w3.org/2000/svg">
<g clip-path="url(#clip0)">
<g filter="url(#filter0_d)">
<circle cx="22.5" cy="22.5" r="22.5" fill="white"/>
</g>
<path d="M26.129 23.4283L20.7327 28.8229C20.4959 29.059 20.1122 29.059 19.8749 28.8229C19.6381 28.5867 19.6381 28.203 19.8749 27.9668L24.8432 23.0003L19.8755 18.0338C19.6387 17.7976 19.6387 17.414 19.8755 17.1772C20.1122 16.941 20.4965 16.941 20.7333 17.1772L26.1296 22.5717C26.3628 22.8055 26.3628 23.1952 26.129 23.4283Z" fill="#767676"/>
</g>
<defs>
<filter id="filter0_d" x="-15" y="-7" width="75" height="75" filterUnits="userSpaceOnUse" color-interpolation-filters="sRGB">
<feFlood flood-opacity="0" result="BackgroundImageFix"/>
<feColorMatrix in="SourceAlpha" type="matrix" values="0 0 0 0 0 0 0 0 0 0 0 0 0 0 0 0 0 0 127 0"/>
<feOffset dy="8"/>
<feGaussianBlur stdDeviation="7.5"/>
<feColorMatrix type="matrix" values="0 0 0 0 0.54902 0 0 0 0 0.596078 0 0 0 0 0.643137 0 0 0 0.1 0"/>
<feBlend mode="normal" in2="BackgroundImageFix" result="effect1_dropShadow"/>
<feBlend mode="normal" in="SourceGraphic" in2="effect1_dropShadow" result="shape"/>
</filter>
<clipPath id="clip0">
<rect width="45" height="45" fill="white" transform="matrix(1 0 0 -1 0 45)"/>
</clipPath>
</defs>
</svg>
